<svg data-name="Layer 1" 
  xmlns="http://www.w3.org/2000/svg" viewBox="0 0 1 1">
  <path d="M.5 0a1 1 0 0 0-.5.866A.996.996 0 0 0 .5 1 .995.995 0 0 0 1 .866 1 1 0 0 0 .5 0z" fill="#5c57b5"/>
  <path fill="#312783" d="M.5 0L0 .866h1L.5 0z"/>
</svg>